{
  "name": "andrewheberle-elasticsearch",
  "version": "0.1.0",
  "author": "andrewheberle",
  "summary": "Deploys and Configures elasticsearch",
  "license": "Apache-2.0",
  "source": "https://gitlab.com/andrewheberle/elasticsearch",
  "project_page": null,
  "issues_url": null,
  "dependencies": [
    {"name":"puppetlabs-stdlib","version_requirement":">= 1.0.0"}
  ],
  "data_provider": "hiera"
}

